[
    {
        "id": "1a6766f2-3f7a-44e1-83a4-6d84e9008bcb",
        "input_type": "PhilippineStandardGeographicCode",
        "properties": {
            "label": "Farm Location",
            "key": "farm_location",
            "is_required": true,
            "psgc": [
                "province",
                "district",
                "municipality",
                "city",
                "barangay"
            ]
        }
    },
    {
        "id": "2d04ed2e-6ade-494d-b466-d34a143bea0b",
        "input_type": "TextField",
        "properties": {
            "label": "Estimated Effective Area",
            "key": "estimated_effective_area",
            "is_required": true,
            "input_type": "numeric"
        }
    },
    {
        "id": "f4a0719e-5def-4308-9271-a84d008de272",
        "input_type": "TextField",
        "properties": {
            "label": "Year Established",
            "key": "year_established",
            "is_required": true,
            "input_type": "numeric"
        }
    },
    {
        "id": "0335b06f-cb09-4989-a0be-c39711cd3123",
        "input_type": "DropDown",
        "properties": {
            "label": "Tenurial Status",
            "key": "tenurial_status",
            "is_required": true,
            "entries": [
                {
                    "id": "1521175c-8931-48f9-a110-7f6042bff5d7",
                    "label": "Owner",
                    "has_text_field": false,
                    "has_text_field_type": null
                },
                {
                    "id": "231b69ba-eac3-4e1c-b441-3392038b5615",
                    "label": "Tenant",
                    "has_text_field": false
                },
                {
                    "id": "ebf31944-e545-403d-8fd2-3eca7ae56050",
                    "label": "Rental",
                    "has_text_field": false
                },
                {
                    "id": "e6261878-62b1-476c-ba83-29d398f01151",
                    "label": "Administrator",
                    "has_text_field": false
                },
                {
                    "id": "6a9face9-518b-487a-991b-a0b27c823283",
                    "label": "Others",
                    "has_text_field": true,
                    "has_text_field_type": "alpha"
                }
            ]
        }
    },
    {
        "id": "b576d1d5-68df-481a-aa60-fda494ac6a3d",
        "input_type": "TextField",
        "properties": {
            "label": "Variety Planted",
            "key": "variety_planted",
            "is_required": true,
            "input_type": "alpha"
        }
    },
    {
        "id": "178b434a-df75-402b-8e3e-f22780156dc6",
        "input_type": "TextField",
        "properties": {
            "label": "Distance Planting (meters)",
            "key": "distance_planting",
            "is_required": true,
            "input_type": "numeric"
        }
    },
    {
        "id": "c023d37f-3e98-4461-bf78-6b15d5f230df",
        "input_type": "TextField",
        "properties": {
            "label": "No. of hills per hectare (estmd)",
            "key": "number_of_hills_per_hectare",
            "is_required": true,
            "input_type": "numeric"
        }
    },
    {
        "id": "979c49da-ac31-4d4c-b3c3-45f5c7c6d2bb",
        "input_type": "CheckBox",
        "properties": {
            "label": "Intercropped/Shade trees",
            "key": "intercropped_shade_trees",
            "is_required": true,
            "entries": [
                {
                    "id": "06455a6e-259a-4490-a166-0dd52643ff06",
                    "label": "cash crop",
                    "has_text_field": false,
                    "has_text_field_type": null
                },
                {
                    "id": "84e0f356-ded9-424d-812f-b8c64968b397",
                    "label": "coconut",
                    "has_text_field": false
                },
                {
                    "id": "68b354d1-b42a-435c-ae87-e87132eae900",
                    "label": "banana",
                    "has_text_field": false
                },
                {
                    "id": "bfc2733d-4f51-4da6-b60d-17127bf25810",
                    "label": "coffee",
                    "has_text_field": false
                },
                {
                    "id": "3ec652bb-ae6e-43a8-8bf9-b9bf98d084a0",
                    "label": "cacao",
                    "has_text_field": false
                },
                {
                    "id": "50913dd4-da57-4c08-9066-1b4276c6e3df",
                    "label": "pineapple",
                    "has_text_field": false
                },
                {
                    "id": "42f0b5a2-2901-4d3b-abfe-e1d08f4c8bb7",
                    "label": "camote",
                    "has_text_field": false
                },
                {
                    "id": "d4519707-188c-46e5-98df-ff4a6e4d7f23",
                    "label": "fruit trees",
                    "has_text_field": false
                },
                {
                    "id": "67a2abe8-469d-4c4e-bf35-194b2f6393d4",
                    "label": "Others",
                    "has_text_field": true,
                    "has_text_field_type": "alpha"
                }
            ]
        }
    },
    {
        "id": "613d4790-89d4-4652-a4a2-ab1c7a0b4d9e",
        "input_type": "DropDown",
        "properties": {
            "label": "Topography",
            "key": "topography",
            "is_required": true,
            "entries": [
                {
                    "id": "06dcb959-2db2-434a-a0bd-309a3d0f1dad",
                    "label": "Flat",
                    "has_text_field": false,
                    "has_text_field_type": null
                },
                {
                    "id": "317134ba-75d3-4f99-b624-eb39ffa154fe",
                    "label": "Rolling",
                    "has_text_field": false
                },
                {
                    "id": "3289afcc-2f08-4e6b-988e-ca66fcdab9af",
                    "label": "Hilly",
                    "has_text_field": false
                }
            ]
        }
    },
    {
        "id": "d6140cb5-14ea-4d41-8409-f45732f1434c",
        "input_type": "DropDown",
        "properties": {
            "label": "Frequency of Harvest",
            "key": "frequency_of_harvest",
            "is_required": true,
            "entries": [
                {
                    "id": "d1f10f38-723a-448e-929f-1e6db7b4608c",
                    "label": "Once a year",
                    "has_text_field": false,
                    "has_text_field_type": null
                },
                {
                    "id": "a1585bc0-cfc4-4154-9bfd-901f6c9e22c8",
                    "label": "2x a year",
                    "has_text_field": false
                },
                {
                    "id": "8327c5df-76e6-42f6-9dae-1e03af8aae8a",
                    "label": "3x a year",
                    "has_text_field": false
                },
                {
                    "id": "5206fa4a-2c74-4663-8812-fd1d3296f3dc",
                    "label": "4x a year",
                    "has_text_field": false
                },
                {
                    "id": "6dc10b8a-36e2-49a9-8f33-72eaf7fc9880",
                    "label": "5x a year",
                    "has_text_field": false
                },
                {
                    "id": "3d1f56be-ea71-493f-a4d5-02d49202961d",
                    "label": "Others",
                    "has_text_field": true,
                    "has_text_field_type": "alphanumeric"
                }
            ]
        }
    },
    {
        "id": "07d71599-9828-48d6-8a55-0e205f26927a",
        "input_type": "TextField",
        "properties": {
            "label": "Annual yield per hectare (kg)",
            "key": "annual_yield_per_hectare",
            "is_required": true,
            "input_type": "numeric"
        }
    },
    {
        "id": "8ac8a9e2-e8fc-4b59-afea-860451ba95dc",
        "input_type": "DropDown",
        "properties": {
            "label": "Frequency of weeding",
            "key": "frequency_of_weeding",
            "is_required": true,
            "entries": [
                {
                    "id": "f2ebc69a-d979-41d5-8d4b-ef8fcafaed4c",
                    "label": "Once a year",
                    "has_text_field": false,
                    "has_text_field_type": null
                },
                {
                    "id": "38298e90-800c-442a-9031-e7b60191a58f",
                    "label": "2x a year",
                    "has_text_field": false
                },
                {
                    "id": "24fa5b5e-0ec2-4939-a078-018c2b8c6893",
                    "label": "3x a year",
                    "has_text_field": false
                },
                {
                    "id": "c690781e-ee56-4b57-b9b2-b7893e70653a",
                    "label": "4x a year",
                    "has_text_field": false
                },
                {
                    "id": "3aec3052-e060-4eb7-9a82-71b27bca12cb",
                    "label": "5x a year",
                    "has_text_field": false
                },
                {
                    "id": "92d75b09-bcda-49ca-bc0d-daa0c8a9bc04",
                    "label": "Others",
                    "has_text_field": true,
                    "has_text_field_type": "alphanumeric"
                }
            ]
        }
    },
    {
        "id": "cc36e31f-cad2-403c-87c6-83809af2a6ea",
        "input_type": "RadioButton",
        "properties": {
            "label": "Fertilizer Application",
            "key": "fertilizer_application",
            "is_required": true,
            "entries": [
                {
                    "id": "d62c7868-04e3-47f6-becd-0b91ac16d949",
                    "label": "Yes",
                    "has_text_field": true,
                    "has_text_field_type": "alpha"
                },
                {
                    "id": "16ee6ffa-57a0-41e4-abea-8f2bc59cd624",
                    "label": "No",
                    "has_text_field": false
                }
            ]
        }
    },
    {
        "id": "e7e21cc4-b3d4-4255-a303-ed201e475714",
        "input_type": "RadioButton",
        "properties": {
            "label": "Presence of Pests",
            "key": "presence_of_pests",
            "is_required": true,
            "entries": [
                {
                    "id": "414986b7-b61c-4176-934d-43f458a7a6e2",
                    "label": "Yes",
                    "has_text_field": true,
                    "has_text_field_type": "alpha"
                },
                {
                    "id": "a025e030-c347-41df-9637-051dceff307f",
                    "label": "No",
                    "has_text_field": false
                }
            ]
        }
    },
    {
        "id": "31d4d329-aad5-4984-bda5-7706b6154ca9",
        "input_type": "DropDown",
        "properties": {
            "label": "Pest Control Applied",
            "key": "pest_control_applied",
            "is_required": true,
            "entries": [
                {
                    "id": "cac93108-58e4-4051-9785-b39b01f1c169",
                    "label": "Chemical",
                    "has_text_field": false,
                    "has_text_field_type": null
                },
                {
                    "id": "86911fda-45e9-435a-b886-fe2c952f4940",
                    "label": "Manual",
                    "has_text_field": false
                },
                {
                    "id": "93bfc6f7-eae4-4e4b-9a00-e896448aefef",
                    "label": "Mixed",
                    "has_text_field": false
                },
                {
                    "id": "8a89dc4d-c1e5-4219-a869-b91f0eadf6b5",
                    "label": "Others",
                    "has_text_field": true,
                    "has_text_field_type": "alpha"
                }
            ]
        }
    },
    {
        "id": "c92abc8d-be0f-46a4-b22f-9e229d19e2a0",
        "input_type": "RadioButton",
        "properties": {
            "label": "Appearance of Diseases",
            "key": "appearance_of_diseases",
            "is_required": true,
            "entries": [
                {
                    "id": "a2ee9e19-cb7e-4e73-b22d-9529e2aa5b73",
                    "label": "Abaca Bunchy Top Virus",
                    "has_text_field": false,
                    "has_text_field_type": null
                },
                {
                    "id": "54297f3e-4d19-4dda-838a-38e836cfda37",
                    "label": "Abaca Mosaic Virus",
                    "has_text_field": false
                },
                {
                    "id": "bc01cb96-3d3d-4e01-beea-05f6bfe5361a",
                    "label": "Abaca Bract Mosaic Virus",
                    "has_text_field": false
                },
                {
                    "id": "bb443292-2578-451c-ad92-2a7766a698dd",
                    "label": "No",
                    "has_text_field": false
                }
            ]
        }
    },
    {
        "id": "0cdb5453-a955-474b-b2cb-028727bab2a2",
        "input_type": "DropDown",
        "properties": {
            "label": "Disease Control",
            "key": "disease_control",
            "is_required": true,
            "entries": [
                {
                    "id": "67854f6e-7c3a-4687-b732-19e6654af3aa",
                    "label": "Abaca Disease Management Program",
                    "has_text_field": false,
                    "has_text_field_type": null
                },
                {
                    "id": "74fae69a-4eb1-4eaf-adba-e4d9c16ec319",
                    "label": "Chemical",
                    "has_text_field": false
                },
                {
                    "id": "5445303a-160e-4a5b-9e24-7bcb5ef834c1",
                    "label": "Manual",
                    "has_text_field": false
                },
                {
                    "id": "e8637343-5fae-4879-b728-dcf7c9cc83dd",
                    "label": "Others",
                    "has_text_field": true,
                    "has_text_field_type": "alpha"
                }
            ]
        }
    },
    {
        "id": "631dbb0c-bdbf-4718-bad5-c93d50f94c14",
        "input_type": "DropDown",
        "properties": {
            "label": "Method of Fiber Extraction",
            "key": "method_of_fiber_extraction",
            "is_required": true,
            "entries": [
                {
                    "id": "5952c84a-35b9-478f-a515-b58ca5537962",
                    "label": "Handstripped (manual)",
                    "has_text_field": false,
                    "has_text_field_type": null
                },
                {
                    "id": "9484ed54-f1df-46d4-9dbb-33c1d24b2048",
                    "label": "Machine - Spindle",
                    "has_text_field": false
                },
                {
                    "id": "446c674c-56a9-4fa1-92c6-5194d4dd72e2",
                    "label": "Machine - Deco",
                    "has_text_field": false
                },
                {
                    "id": "b7e42630-fcfb-4229-af46-67f884b19eee",
                    "label": "Mixed (manual-spindle)",
                    "has_text_field": false
                },
                {
                    "id": "755d656b-ee38-40b9-90c8-d5808e4cf894",
                    "label": "Mixed (manual-deco)",
                    "has_text_field": false
                },
                {
                    "id": "e7199873-7b72-4eb1-95d0-fa14477842c2",
                    "label": "Mixed (spindle-deco)",
                    "has_text_field": false
                }
            ]
        }
    },
    {
        "id": "fc71ebc0-1c74-4698-98d2-2ec085d3e883",
        "input_type": "DropDown",
        "properties": {
            "label": "Sharing (landowner:harvester)",
            "key": "sharing",
            "is_required": true,
            "entries": [
                {
                    "id": "dde0ce4a-8fb6-436e-868b-6bb4ecc921dc",
                    "label": "50:50",
                    "has_text_field": false,
                    "has_text_field_type": null
                },
                {
                    "id": "02ecc65d-ac0a-4ce8-973c-c95ebde3782e",
                    "label": "40:60",
                    "has_text_field": false
                },
                {
                    "id": "23659442-1846-4453-8a42-251279997f0c",
                    "label": "60:40",
                    "has_text_field": false
                },
                {
                    "id": "131ea72e-cff9-4fbe-8797-2a0018148251",
                    "label": "30:70",
                    "has_text_field": false
                },
                {
                    "id": "f544f6ca-d312-40f6-b347-3ce233400f54",
                    "label": "70:30",
                    "has_text_field": false
                },
                {
                    "id": "aaa7593f-fc8c-4a48-aa11-097112dec722",
                    "label": "Others",
                    "has_text_field": true,
                    "has_text_field_type": "alphanumeric"
                }
            ]
        }
    },
    {
        "id": "609df828-a847-4f8d-a7a6-62f8579ba8b8",
        "input_type": "DropDown",
        "properties": {
            "label": "Market Outlet",
            "key": "market_outlet",
            "is_required": true,
            "entries": [
                {
                    "id": "9c762418-a781-4fc3-9b95-2a06b2678398",
                    "label": "Traders",
                    "has_text_field": false,
                    "has_text_field_type": null
                },
                {
                    "id": "d9486a23-cbd4-4563-850d-c3e7be3c097b",
                    "label": "Processors",
                    "has_text_field": false
                },
                {
                    "id": "2cd57cec-3d14-42b5-a25a-c3af5748d13d",
                    "label": "Handicraft makers",
                    "has_text_field": false
                },
                {
                    "id": "d132aac0-c39a-46d6-ba66-558f25951256",
                    "label": "Cooperative/Association",
                    "has_text_field": false
                },
                {
                    "id": "ef7fe918-794c-4663-b42a-8f1256d780f1",
                    "label": "Grading Baling Establishment",
                    "has_text_field": false
                },
                {
                    "id": "1abf9e59-350a-41dd-bc9c-6c616e1f6119",
                    "label": "Others",
                    "has_text_field": true,
                    "has_text_field_type": "alpha"
                }
            ]
        }
    },
    {
        "id": "d5ef6168-16a5-4845-bc2c-ae277abe6aa6",
        "input_type": "TextField",
        "properties": {
            "label": "Potential area for Expansion (ha)",
            "key": "potential_area_for_expansion",
            "is_required": true,
            "input_type": "alphanumeric"
        }
    }
]