[
    {
        "id": "ac8eb7c3-4416-43ea-a729-3a8f63f7ee83",
        "input_type": "PhilippineStandardGeographicCode",
        "properties": {
            "label": "Farm Location",
            "key": "farm_location",
            "is_required": true,
            "psgc": [
                "province",
                "district",
                "municipality",
                "city",
                "barangay"
            ]
        }
    },
    {
        "id": "3f51e96b-728f-4853-8dbe-89970f133c65",
        "input_type": "TextField",
        "properties": {
            "label": "Year Established",
            "key": "year_established",
            "is_required": true,
            "input_type": "numeric"
        }
    },
    {
        "id": "0446509d-54bf-4afc-9548-e24d950c7e9e",
        "input_type": "DropDown",
        "properties": {
            "label": "Tenurial Status",
            "key": "tenurial_status",
            "is_required": true,
            "entries": [
                {
                    "id": "0d47bda4-6bb8-41cf-8b42-c675cf24fd65",
                    "label": "Owner",
                    "has_text_field": false,
                    "has_text_field_type": null
                },
                {
                    "id": "82f67ef8-eece-4d30-af45-2e3bcfea8a30",
                    "label": "Tenant",
                    "has_text_field": false
                },
                {
                    "id": "9d8d8158-2512-4652-8a9a-ffe1785919d8",
                    "label": "Rental",
                    "has_text_field": false
                },
                {
                    "id": "aa00f3ca-1081-4eb6-8abf-27283ecbd549",
                    "label": "Forest areas",
                    "has_text_field": false
                },
                {
                    "id": "6433a74b-5043-41a8-932f-99708e864037",
                    "label": "Others",
                    "has_text_field": true,
                    "has_text_field_type": "alpha"
                }
            ]
        }
    },
    {
        "id": "97c361d1-9d2e-481f-bfab-22735544f731",
        "input_type": "TextField",
        "properties": {
            "label": "Variety Planted",
            "key": "variety_planted",
            "is_required": true,
            "input_type": "alpha"
        }
    },
    {
        "id": "4e86f8cf-2aea-48b0-baa9-6f41430bf619",
        "input_type": "TextField",
        "properties": {
            "label": "No. of hills per hectare (estmd)",
            "key": "number_of_hills_per_hectare",
            "is_required": true,
            "input_type": "numeric"
        }
    },
    {
        "id": "77d4bd4c-cf93-4024-86ed-52f5115d586e",
        "input_type": "CheckBox",
        "properties": {
            "label": "Intercropped/Shade trees",
            "key": "intercropped_shade_trees",
            "is_required": true,
            "entries": [
                {
                    "id": "42085414-ab10-4086-a86d-c3199039d189",
                    "label": "cash crop",
                    "has_text_field": false,
                    "has_text_field_type": null
                },
                {
                    "id": "7348c5b7-1ca4-4f11-980a-cfbd53ff0b7f",
                    "label": "coconut",
                    "has_text_field": false
                },
                {
                    "id": "86a7d143-b68c-48d6-a674-55be7cd71387",
                    "label": "banana",
                    "has_text_field": false
                },
                {
                    "id": "5ff8e792-ddc1-4d51-9db3-4cb31218d075",
                    "label": "coffee",
                    "has_text_field": false
                },
                {
                    "id": "2913e567-c948-49a1-9c3e-4b2f38c2a4e7",
                    "label": "cacao",
                    "has_text_field": false
                },
                {
                    "id": "3d7bc561-3bcd-494c-afbb-1e2ad051ad1f",
                    "label": "pineapple",
                    "has_text_field": false
                },
                {
                    "id": "3e1139ff-3ec7-4de5-bc31-85e67bee50b2",
                    "label": "camote",
                    "has_text_field": false
                },
                {
                    "id": "2d459ea3-ba9c-41b0-8ba9-b39c48a11678",
                    "label": "fruit trees",
                    "has_text_field": false
                },
                {
                    "id": "4e76975e-fecd-4dd6-b9ba-3bea359f11c7",
                    "label": "Others",
                    "has_text_field": true,
                    "has_text_field_type": "alpha"
                }
            ]
        }
    },
    {
        "id": "629eae1c-2eb7-4a17-8a99-8c7c17b192e6",
        "input_type": "DropDown",
        "properties": {
            "label": "Topography",
            "key": "topography",
            "is_required": true,
            "entries": [
                {
                    "id": "667afb0c-6c27-4451-87d0-ce9f98685e3e",
                    "label": "Flat",
                    "has_text_field": false,
                    "has_text_field_type": null
                },
                {
                    "id": "1a4c07ce-dafd-4314-b2f2-b0d48d97d44a",
                    "label": "Rolling",
                    "has_text_field": false
                },
                {
                    "id": "8be80770-3219-4424-9fb6-d6432634ddbd",
                    "label": "Hilly",
                    "has_text_field": false
                }
            ]
        }
    },
    {
        "id": "86348e85-fdb0-4ac0-9795-c65bfb8b74f2",
        "input_type": "DropDown",
        "properties": {
            "label": "Frequency of Harvest",
            "key": "frequency_of_harvest",
            "is_required": true,
            "entries": [
                {
                    "id": "8336d11a-9c87-4ae3-8b65-3367cc248979",
                    "label": "Once a year",
                    "has_text_field": false,
                    "has_text_field_type": null
                },
                {
                    "id": "fe0229b8-ca91-43fe-bead-2d30cd4fdaf4",
                    "label": "2x a year",
                    "has_text_field": false
                },
                {
                    "id": "75a83b8f-07c3-4a07-911b-1fb017046de3",
                    "label": "3x a year",
                    "has_text_field": false
                },
                {
                    "id": "1924a089-7030-40ec-823e-ba13929a7bb1",
                    "label": "4x a year",
                    "has_text_field": false
                },
                {
                    "id": "38d5defb-f93a-48ef-a776-407f028db420",
                    "label": "5x a year",
                    "has_text_field": false
                },
                {
                    "id": "f43617ff-e711-4a80-8a4e-592a6239d93f",
                    "label": "Others",
                    "has_text_field": true,
                    "has_text_field_type": "alphanumeric"
                }
            ]
        }
    },
    {
        "id": "fa747c26-fbc5-4cae-83e3-3587b78dbf1a",
        "input_type": "TextField",
        "properties": {
            "label": "No. of Boxes Reared",
            "key": "no_of_boxes_reared",
            "is_required": true,
            "input_type": "numeric"
        }
    },
    {
        "id": "a312cbab-69fc-4e42-882a-7c50fcd2dd1c",
        "input_type": "DropDown",
        "properties": {
            "label": "Frequency of weeding",
            "key": "frequency_of_weeding",
            "is_required": true,
            "entries": [
                {
                    "id": "8f82e6bf-6833-4076-b235-b2f8c1c318b8",
                    "label": "Once a year",
                    "has_text_field": false,
                    "has_text_field_type": null
                },
                {
                    "id": "e7993fbb-137e-4d6a-89b7-8114824a5a7f",
                    "label": "2x a year",
                    "has_text_field": false
                },
                {
                    "id": "3d7cdc8d-c59b-445e-a6f5-a15eaf6394da",
                    "label": "3x a year",
                    "has_text_field": false
                },
                {
                    "id": "467bfbf1-bcef-4fd1-8793-2318af1f996f",
                    "label": "4x a year",
                    "has_text_field": false
                },
                {
                    "id": "e38c3886-1697-4177-82de-edb3f2ab6982",
                    "label": "5x a year",
                    "has_text_field": false
                },
                {
                    "id": "886864f2-cd0d-43c8-9493-881021d3614b",
                    "label": "Others",
                    "has_text_field": true,
                    "has_text_field_type": "alphanumeric"
                }
            ]
        }
    },
    {
        "id": "f63ef88c-321d-4727-bea9-8c0ffbd2b72c",
        "input_type": "RadioButton",
        "properties": {
            "label": "Fertilizer Application",
            "key": "fertilizer_application",
            "is_required": true,
            "entries": [
                {
                    "id": "ca962b00-43a2-4dfe-81b2-d1935ae5b1df",
                    "label": "Yes",
                    "has_text_field": true,
                    "has_text_field_type": "alpha"
                },
                {
                    "id": "6c327dcd-96f4-4476-8cae-8b9414dc77fd",
                    "label": "No",
                    "has_text_field": false
                }
            ]
        }
    },
    {
        "id": "9c178e98-721e-42b9-a3ad-4f762bc22823",
        "input_type": "RadioButton",
        "properties": {
            "label": "Presence of Pests",
            "key": "presence_of_pests",
            "is_required": true,
            "entries": [
                {
                    "id": "1b1f133e-50ee-4f3b-8aa8-21bb8bcc0794",
                    "label": "Yes",
                    "has_text_field": true,
                    "has_text_field_type": "alpha"
                },
                {
                    "id": "902ca2f4-6e58-4471-ae1b-c244294751bb",
                    "label": "No",
                    "has_text_field": false
                }
            ]
        }
    },
    {
        "id": "7e7704b7-3fe9-4f8e-be99-2bbec89c98a9",
        "input_type": "DropDown",
        "properties": {
            "label": "Pest Control Applied",
            "key": "pest_control_applied",
            "is_required": true,
            "entries": [
                {
                    "id": "1f503bad-93f3-4673-a7a3-671df7be0f73",
                    "label": "Chemical",
                    "has_text_field": false,
                    "has_text_field_type": null
                },
                {
                    "id": "e1c6d8a9-0277-47bf-9dc8-ff56d582a194",
                    "label": "Manual",
                    "has_text_field": false
                },
                {
                    "id": "c66c34cd-5bac-4afc-8c9a-30052148c0f6",
                    "label": "Mixed",
                    "has_text_field": false
                },
                {
                    "id": "ca2842b7-f13c-4156-ad4a-50c1de00d15a",
                    "label": "Others",
                    "has_text_field": true,
                    "has_text_field_type": "alpha"
                }
            ]
        }
    },
    {
        "id": "4bc3b660-6833-47ef-be3b-197f8772f925",
        "input_type": "RadioButton",
        "properties": {
            "label": "Appearance of Diseases",
            "key": "appearance_of_diseases",
            "is_required": true,
            "entries": [
                {
                    "id": "adce86c0-b8d6-4d4f-9f95-20e5a601bf9b",
                    "label": "Yes",
                    "has_text_field": true,
                    "has_text_field_type": "alphanumeric"
                },
                {
                    "id": "2ee21566-8736-49ac-a41a-523286507969",
                    "label": "No",
                    "has_text_field": false
                }
            ]
        }
    },
    {
        "id": "1ef3dbe3-f37d-41a8-a506-f25af14ed20c",
        "input_type": "DropDown",
        "properties": {
            "label": "Disease Control",
            "key": "disease_control",
            "is_required": true,
            "entries": [
                {
                    "id": "bed2a92e-af04-4ffe-b5e5-6301c19ef7ca",
                    "label": "Chemical",
                    "has_text_field": false,
                    "has_text_field_type": null
                },
                {
                    "id": "8e7648e7-709e-4bb3-a6c7-783cfab5584d",
                    "label": "Manual",
                    "has_text_field": false
                },
                {
                    "id": "36734539-314f-4515-888d-7dc8f61f82c3",
                    "label": "Others",
                    "has_text_field": true,
                    "has_text_field_type": "alpha"
                }
            ]
        }
    },
    {
        "id": "e048d992-fdb1-44d2-9ab8-317d22568af6",
        "input_type": "TextField",
        "properties": {
            "label": "Rearing Capacity",
            "key": "rearing_capacity",
            "is_required": true,
            "input_type": "alphanumeric"
        }
    },
    {
        "id": "e878007c-3214-4aaf-81fc-c91dedb7e375",
        "input_type": "DropDown",
        "properties": {
            "label": "Frequency of Rearing",
            "key": "frequency_of_rearing",
            "is_required": true,
            "entries": [
                {
                    "id": "ba49e8c6-a981-4ad1-b691-9062c9c0d5af",
                    "label": "Once a year",
                    "has_text_field": false,
                    "has_text_field_type": null
                },
                {
                    "id": "b4ff1578-f74e-4bbc-b253-d92b0e27f7ef",
                    "label": "2x a year",
                    "has_text_field": false
                },
                {
                    "id": "30fb940a-4ef2-4850-99e1-40499ef8b90d",
                    "label": "3x a year",
                    "has_text_field": false
                },
                {
                    "id": "fcbf1fb0-be6e-4c10-8aee-53e5d15dc26f",
                    "label": "4x a year",
                    "has_text_field": false
                },
                {
                    "id": "dbc501cd-f653-408b-a41e-96d161d12c89",
                    "label": "5x a year",
                    "has_text_field": false
                },
                {
                    "id": "8fe0d03e-96c6-43cf-aaee-bb7de8d4702a",
                    "label": "Others",
                    "has_text_field": true,
                    "has_text_field_type": "alphanumeric"
                }
            ]
        }
    },
    {
        "id": "5ee15234-3d69-4787-b5b1-aed7ee307aa8",
        "input_type": "TextField",
        "properties": {
            "label": "Potential area for Expansion (ha)",
            "key": "potential_area_for_expansion",
            "is_required": true,
            "input_type": "alphanumeric"
        }
    }
]