[
    {
        "id": "fe824295-e45a-4515-90e3-4feaa3345b5f",
        "input_type": "PhilippineStandardGeographicCode",
        "properties": {
            "label": "Farm Location",
            "key": "farm_location",
            "is_required": true,
            "psgc": [
                "province",
                "district",
                "municipality",
                "city",
                "barangay"
            ]
        }
    },
    {
        "id": "5e521de2-2598-477f-a512-c03c3c819477",
        "input_type": "TextField",
        "properties": {
            "label": "Year Established",
            "key": "year_established",
            "is_required": true,
            "input_type": "numeric"
        }
    },
    {
        "id": "31a45f5a-d6c2-4905-a9ef-15a3f8237660",
        "input_type": "DropDown",
        "properties": {
            "label": "Tenurial Status",
            "key": "tenurial_status",
            "is_required": true,
            "entries": [
                {
                    "id": "a3886431-017f-43f8-ac6b-f09e8b2e0d3f",
                    "label": "Owner",
                    "has_text_field": false,
                    "has_text_field_type": null
                },
                {
                    "id": "015cd108-be49-4305-afb7-9a73c99aa5a2",
                    "label": "Tenant",
                    "has_text_field": false
                },
                {
                    "id": "e344558b-1325-4ddb-935f-0bcec052a518",
                    "label": "Rental",
                    "has_text_field": false
                },
                {
                    "id": "53f7537a-f5fd-4e70-9180-e8296ea35d20",
                    "label": "Forest areas",
                    "has_text_field": false
                },
                {
                    "id": "fac48f32-94a4-49d2-a9a3-e90b50ea930b",
                    "label": "Others",
                    "has_text_field": true,
                    "has_text_field_type": "alpha"
                }
            ]
        }
    },
    {
        "id": "734baabc-a034-4ff0-9110-d536ab33f048",
        "input_type": "TextField",
        "properties": {
            "label": "Variety Planted",
            "key": "variety_planted",
            "is_required": true,
            "input_type": "alpha"
        }
    },
    {
        "id": "281c2ff5-0a97-4630-a212-6babe9dae7c8",
        "input_type": "TextField",
        "properties": {
            "label": "No. of hills per hectare (estmd)",
            "key": "number_of_hills_per_hectare",
            "is_required": true,
            "input_type": "numeric"
        }
    },
    {
        "id": "b5ed13ee-125c-41f3-a762-8428d8b5ee77",
        "input_type": "CheckBox",
        "properties": {
            "label": "Intercropped/Shade trees",
            "key": "intercropped_shade_trees",
            "is_required": true,
            "entries": [
                {
                    "id": "703cc16f-3e5e-456b-b025-c6ab6e886e3f",
                    "label": "cash crop",
                    "has_text_field": false,
                    "has_text_field_type": null
                },
                {
                    "id": "a24ea04b-f96f-41b7-b0d2-321d2f7d2aa8",
                    "label": "coconut",
                    "has_text_field": false
                },
                {
                    "id": "6fe49e62-419a-4ffd-9626-7842425988ec",
                    "label": "banana",
                    "has_text_field": false
                },
                {
                    "id": "b44ebbbf-64c6-4644-b7e1-dc6811564dcf",
                    "label": "coffee",
                    "has_text_field": false
                },
                {
                    "id": "3a82162d-065c-4f9b-a179-f4de1b0f66f6",
                    "label": "cacao",
                    "has_text_field": false
                },
                {
                    "id": "e9cb727f-3582-4421-a6ea-d096d5002d83",
                    "label": "pineapple",
                    "has_text_field": false
                },
                {
                    "id": "f1bd3bc7-2c6c-4770-8cad-10add928ab26",
                    "label": "camote",
                    "has_text_field": false
                },
                {
                    "id": "11cc0032-ca20-4025-b4ed-cedf512d5519",
                    "label": "fruit trees",
                    "has_text_field": false
                },
                {
                    "id": "cc648801-448c-4e31-b9c2-0bde6803843e",
                    "label": "Others",
                    "has_text_field": true,
                    "has_text_field_type": "alpha"
                }
            ]
        }
    },
    {
        "id": "0be3f02d-8cae-48b7-970c-c8f304d29f8d",
        "input_type": "DropDown",
        "properties": {
            "label": "Topography",
            "key": "topography",
            "is_required": true,
            "entries": [
                {
                    "id": "d243eed5-3ed1-4506-88f5-3bb568be1933",
                    "label": "Flat",
                    "has_text_field": false,
                    "has_text_field_type": null
                },
                {
                    "id": "d9b9a2e9-2fa7-4ab6-9543-0308636c93d9",
                    "label": "Rolling",
                    "has_text_field": false
                },
                {
                    "id": "969191da-549c-48ec-989a-ca453cea811d",
                    "label": "Hilly",
                    "has_text_field": false
                }
            ]
        }
    },
    {
        "id": "83843903-cdb4-4241-a868-9febbbdbddfd",
        "input_type": "DropDown",
        "properties": {
            "label": "Frequency of Harvest",
            "key": "frequency_of_harvest",
            "is_required": true,
            "entries": [
                {
                    "id": "5a6556f3-0ebc-4a25-9aed-2716cff92f7a",
                    "label": "Once a year",
                    "has_text_field": false,
                    "has_text_field_type": null
                },
                {
                    "id": "232365df-d298-4122-ab68-69911f737d0d",
                    "label": "2x a year",
                    "has_text_field": false
                },
                {
                    "id": "58a2fd79-a5a2-4036-823b-d9de921993b1",
                    "label": "3x a year",
                    "has_text_field": false
                },
                {
                    "id": "eeb615c5-f667-44b7-94ce-73d5f5268d1e",
                    "label": "4x a year",
                    "has_text_field": false
                },
                {
                    "id": "4aa7b952-2dcc-4ad1-bdb7-0b32136d8f2c",
                    "label": "5x a year",
                    "has_text_field": false
                },
                {
                    "id": "796a9b69-0744-4bfb-a131-2e5640f80764",
                    "label": "Others",
                    "has_text_field": true,
                    "has_text_field_type": "alphanumeric"
                }
            ]
        }
    },
    {
        "id": "256af12d-3572-4b4a-b8e2-51932c64814f",
        "input_type": "TextField",
        "properties": {
            "label": "Annual yield per hectare (kg)",
            "key": "annual_yield_per_hectare",
            "is_required": true,
            "input_type": "numeric"
        }
    },
    {
        "id": "bec7c8b0-d93a-4e37-bb35-34c74ca8ffd8",
        "input_type": "DropDown",
        "properties": {
            "label": "Frequency of weeding",
            "key": "frequency_of_weeding",
            "is_required": true,
            "entries": [
                {
                    "id": "f5e1c1e3-212c-4821-8a51-a59346384d7c",
                    "label": "Once a year",
                    "has_text_field": false,
                    "has_text_field_type": null
                },
                {
                    "id": "cea3ec04-e25f-41f0-a3ec-9324ab5fb3f7",
                    "label": "2x a year",
                    "has_text_field": false
                },
                {
                    "id": "2614119e-6c23-42ff-8d64-4216dc0e1a63",
                    "label": "3x a year",
                    "has_text_field": false
                },
                {
                    "id": "8db75940-c688-4dbd-92b8-589988504ec7",
                    "label": "4x a year",
                    "has_text_field": false
                },
                {
                    "id": "0d79d35e-50f5-46d1-bb1e-28261c2fba76",
                    "label": "5x a year",
                    "has_text_field": false
                },
                {
                    "id": "08368874-61d3-4822-9158-22df969fff98",
                    "label": "Others",
                    "has_text_field": true,
                    "has_text_field_type": "alphanumeric"
                }
            ]
        }
    },
    {
        "id": "6e2389ee-c55a-4ca5-81b0-94611f7d4d6f",
        "input_type": "RadioButton",
        "properties": {
            "label": "Fertilizer Application",
            "key": "fertilizer_application",
            "is_required": true,
            "entries": [
                {
                    "id": "0aef72b8-aa5b-4489-ad41-cf54537de177",
                    "label": "Yes",
                    "has_text_field": true,
                    "has_text_field_type": "alpha"
                },
                {
                    "id": "d87d96d8-6219-44c7-9631-2e3d1ef52912",
                    "label": "No",
                    "has_text_field": false
                }
            ]
        }
    },
    {
        "id": "7fe41cc4-b3f8-40d8-9e61-03d206ca868c",
        "input_type": "RadioButton",
        "properties": {
            "label": "Presence of Pests",
            "key": "presence_of_pests",
            "is_required": true,
            "entries": [
                {
                    "id": "8e1ad6a7-3382-46fb-bec8-2fd62108ea5d",
                    "label": "Yes",
                    "has_text_field": true,
                    "has_text_field_type": "alpha"
                },
                {
                    "id": "489b3c73-67cf-427e-9d97-9b2653e13510",
                    "label": "No",
                    "has_text_field": false
                }
            ]
        }
    },
    {
        "id": "7aad9648-a82f-49d5-9f82-1ee51e7f3ba6",
        "input_type": "DropDown",
        "properties": {
            "label": "Pest Control Applied",
            "key": "pest_control_applied",
            "is_required": true,
            "entries": [
                {
                    "id": "fb54aae3-ff0e-4bc3-9950-1531a99ad49b",
                    "label": "Chemical",
                    "has_text_field": false,
                    "has_text_field_type": null
                },
                {
                    "id": "e47f59ff-f05c-4f8e-96c8-663b50da76bc",
                    "label": "Manual",
                    "has_text_field": false
                },
                {
                    "id": "d1266de1-5323-4605-a6bd-87badcfc24fb",
                    "label": "Mixed",
                    "has_text_field": false
                },
                {
                    "id": "ee387fe4-1b2c-47d3-96a9-ea7efba21ec1",
                    "label": "Others",
                    "has_text_field": true,
                    "has_text_field_type": "alpha"
                }
            ]
        }
    },
    {
        "id": "a2a8fa9a-5c3e-4ccf-9f5b-463b62183db2",
        "input_type": "RadioButton",
        "properties": {
            "label": "Appearance of Diseases",
            "key": "appearance_of_diseases",
            "is_required": true,
            "entries": [
                {
                    "id": "d48894a4-987e-4f34-853d-76f3d2bcc165",
                    "label": "Yes",
                    "has_text_field": true,
                    "has_text_field_type": "alphanumeric"
                },
                {
                    "id": "6ba7cacb-0829-48eb-8c75-53ac882b9ace",
                    "label": "No",
                    "has_text_field": false
                }
            ]
        }
    },
    {
        "id": "265df6bd-131b-46a1-9374-ffd6572c27bd",
        "input_type": "DropDown",
        "properties": {
            "label": "Disease Control",
            "key": "disease_control",
            "is_required": true,
            "entries": [
                {
                    "id": "a86d9f91-f027-4c5f-b731-17fdc8b9790b",
                    "label": "Chemical",
                    "has_text_field": false,
                    "has_text_field_type": null
                },
                {
                    "id": "0eb50ec9-3302-4c95-ac0f-bf6fe78dc66e",
                    "label": "Manual",
                    "has_text_field": false
                },
                {
                    "id": "11f90ef8-e13c-4b32-9f91-c49f0cb08782",
                    "label": "Others",
                    "has_text_field": true,
                    "has_text_field_type": "alpha"
                }
            ]
        }
    },
    {
        "id": "2a186b7a-0d13-455c-bf75-2af047567889",
        "input_type": "DropDown",
        "properties": {
            "label": "Method of Fiber Extraction",
            "key": "method_of_fiber_extraction",
            "is_required": true,
            "entries": [
                {
                    "id": "935b6f91-372d-415b-87cd-fbb63d21d9dc",
                    "label": "Handstripped - manual",
                    "has_text_field": false,
                    "has_text_field_type": null
                },
                {
                    "id": "8289737a-2565-4aad-b5d7-8ed5c2f8ee79",
                    "label": "Machine",
                    "has_text_field": false
                },
                {
                    "id": "4089711b-fbeb-4390-ac03-ba542fbc7444",
                    "label": "No extraction process",
                    "has_text_field": false
                },
                {
                    "id": "b9f51def-3b16-4898-a2e6-b84c5accf533",
                    "label": "Others",
                    "has_text_field": true,
                    "has_text_field_type": "alpha"
                }
            ]
        }
    },
    {
        "id": "76946001-b56f-4bc8-a5dc-eadc82151e67",
        "input_type": "DropDown",
        "properties": {
            "label": "Sharing (landowner:harvester)",
            "key": "sharing",
            "is_required": true,
            "entries": [
                {
                    "id": "b3bcef1a-07d5-463e-a58e-2460a84c2bd7",
                    "label": "50:50",
                    "has_text_field": false,
                    "has_text_field_type": null
                },
                {
                    "id": "b9ade311-1926-4bc2-a60e-b75294dcee9e",
                    "label": "40:60",
                    "has_text_field": false
                },
                {
                    "id": "3dc3ba7a-d7dd-4c73-aed0-635f86de7d37",
                    "label": "60:40",
                    "has_text_field": false
                },
                {
                    "id": "22226385-963d-4fb3-a3c7-5be6d7eb3b36",
                    "label": "30:70",
                    "has_text_field": false
                },
                {
                    "id": "4737cc25-9b59-4860-8969-292d16fe20b4",
                    "label": "70:30",
                    "has_text_field": false
                },
                {
                    "id": "22e6d0c2-cc64-4ad3-b52b-7bc0e34af9fc",
                    "label": "Others",
                    "has_text_field": true,
                    "has_text_field_type": "alphanumeric"
                }
            ]
        }
    },
    {
        "id": "ff83a00a-cf82-4d5a-b024-53a593bb04be",
        "input_type": "DropDown",
        "properties": {
            "label": "Market Outlet",
            "key": "market_outlet",
            "is_required": true,
            "entries": [
                {
                    "id": "2b948546-0a4a-4a04-a8b4-803289979cb9",
                    "label": "Traders",
                    "has_text_field": false,
                    "has_text_field_type": null
                },
                {
                    "id": "25b9e1a7-3750-4c10-ae13-ec99833e07fd",
                    "label": "Processors",
                    "has_text_field": false
                },
                {
                    "id": "39b9f9c8-d31a-46a6-83cd-9bf42e0a4a97",
                    "label": "Handicraft makers",
                    "has_text_field": false
                },
                {
                    "id": "7df291dd-5d7b-4a7c-b6ab-362a758e047b",
                    "label": "Cooperative/Association",
                    "has_text_field": false
                },
                {
                    "id": "994b3825-6816-43c1-b991-b162a0119db5",
                    "label": "Others",
                    "has_text_field": true,
                    "has_text_field_type": "alpha"
                }
            ]
        }
    },
    {
        "id": "8d2b0b08-96ab-4ce1-a78e-02ad092f558c",
        "input_type": "TextField",
        "properties": {
            "label": "Potential area for Expansion (ha)",
            "key": "potential_area_for_expansion",
            "is_required": true,
            "input_type": "alphanumeric"
        }
    }
]