[
  {
    "code": "012805000",
    "name": "City of Batac",
    "isCapital": false,
    "provinceCode": "012800000",
    "districtCode": false,
    "regionCode": "010000000",
    "islandGroupCode": "luzon"
  },
  {
    "code": "012812000",
    "name": "City of Laoag",
    "isCapital": true,
    "provinceCode": "012800000",
    "districtCode": false,
    "regionCode": "010000000",
    "islandGroupCode": "luzon"
  },
  {
    "code": "012906000",
    "name": "City of Candon",
    "isCapital": false,
    "provinceCode": "012900000",
    "districtCode": false,
    "regionCode": "010000000",
    "islandGroupCode": "luzon"
  },
  {
    "code": "012934000",
    "name": "City of Vigan",
    "isCapital": true,
    "provinceCode": "012900000",
    "districtCode": false,
    "regionCode": "010000000",
    "islandGroupCode": "luzon"
  },
  {
    "code": "013314000",
    "name": "City of San Fernando",
    "isCapital": true,
    "provinceCode": "013300000",
    "districtCode": false,
    "regionCode": "010000000",
    "islandGroupCode": "luzon"
  },
  {
    "code": "015503000",
    "name": "City of Alaminos",
    "isCapital": false,
    "provinceCode": "015500000",
    "districtCode": false,
    "regionCode": "010000000",
    "islandGroupCode": "luzon"
  },
  {
    "code": "015518000",
    "name": "City of Dagupan",
    "isCapital": false,
    "provinceCode": "015500000",
    "districtCode": false,
    "regionCode": "010000000",
    "islandGroupCode": "luzon"
  },
  {
    "code": "015532000",
    "name": "City of San Carlos",
    "isCapital": false,
    "provinceCode": "015500000",
    "districtCode": false,
    "regionCode": "010000000",
    "islandGroupCode": "luzon"
  },
  {
    "code": "015546000",
    "name": "City of Urdaneta",
    "isCapital": false,
    "provinceCode": "015500000",
    "districtCode": false,
    "regionCode": "010000000",
    "islandGroupCode": "luzon"
  },
  {
    "code": "021529000",
    "name": "Tuguegarao City",
    "isCapital": true,
    "provinceCode": "021500000",
    "districtCode": false,
    "regionCode": "020000000",
    "islandGroupCode": "luzon"
  },
  {
    "code": "023108000",
    "name": "City of Cauayan",
    "isCapital": false,
    "provinceCode": "023100000",
    "districtCode": false,
    "regionCode": "020000000",
    "islandGroupCode": "luzon"
  },
  {
    "code": "023114000",
    "name": "City of Ilagan",
    "isCapital": true,
    "provinceCode": "023100000",
    "districtCode": false,
    "regionCode": "020000000",
    "islandGroupCode": "luzon"
  },
  {
    "code": "023135000",
    "name": "City of Santiago",
    "isCapital": false,
    "provinceCode": "023100000",
    "districtCode": false,
    "regionCode": "020000000",
    "islandGroupCode": "luzon"
  },
  {
    "code": "030803000",
    "name": "City of Balanga",
    "isCapital": true,
    "provinceCode": "030800000",
    "districtCode": false,
    "regionCode": "030000000",
    "islandGroupCode": "luzon"
  },
  {
    "code": "031410000",
    "name": "City of Malolos",
    "isCapital": true,
    "provinceCode": "031400000",
    "districtCode": false,
    "regionCode": "030000000",
    "islandGroupCode": "luzon"
  },
  {
    "code": "031412000",
    "name": "City of Meycauayan",
    "isCapital": false,
    "provinceCode": "031400000",
    "districtCode": false,
    "regionCode": "030000000",
    "islandGroupCode": "luzon"
  },
  {
    "code": "031420000",
    "name": "City of San Jose Del Monte",
    "isCapital": false,
    "provinceCode": "031400000",
    "districtCode": false,
    "regionCode": "030000000",
    "islandGroupCode": "luzon"
  },
  {
    "code": "034903000",
    "name": "City of Cabanatuan",
    "isCapital": false,
    "provinceCode": "034900000",
    "districtCode": false,
    "regionCode": "030000000",
    "islandGroupCode": "luzon"
  },
  {
    "code": "034908000",
    "name": "City of Gapan",
    "isCapital": false,
    "provinceCode": "034900000",
    "districtCode": false,
    "regionCode": "030000000",
    "islandGroupCode": "luzon"
  },
  {
    "code": "034917000",
    "name": "Science City of Muñoz",
    "isCapital": false,
    "provinceCode": "034900000",
    "districtCode": false,
    "regionCode": "030000000",
    "islandGroupCode": "luzon"
  },
  {
    "code": "034919000",
    "name": "City of Palayan",
    "isCapital": true,
    "provinceCode": "034900000",
    "districtCode": false,
    "regionCode": "030000000",
    "islandGroupCode": "luzon"
  },
  {
    "code": "034926000",
    "name": "San Jose City",
    "isCapital": false,
    "provinceCode": "034900000",
    "districtCode": false,
    "regionCode": "030000000",
    "islandGroupCode": "luzon"
  },
  {
    "code": "035401000",
    "name": "City of Angeles",
    "isCapital": false,
    "provinceCode": "035400000",
    "districtCode": false,
    "regionCode": "030000000",
    "islandGroupCode": "luzon"
  },
  {
    "code": "035409000",
    "name": "Mabalacat City",
    "isCapital": false,
    "provinceCode": "035400000",
    "districtCode": false,
    "regionCode": "030000000",
    "islandGroupCode": "luzon"
  },
  {
    "code": "035416000",
    "name": "City of San Fernando",
    "isCapital": true,
    "provinceCode": "035400000",
    "districtCode": false,
    "regionCode": "030000000",
    "islandGroupCode": "luzon"
  },
  {
    "code": "036916000",
    "name": "City of Tarlac",
    "isCapital": true,
    "provinceCode": "036900000",
    "districtCode": false,
    "regionCode": "030000000",
    "islandGroupCode": "luzon"
  },
  {
    "code": "037107000",
    "name": "City of Olongapo",
    "isCapital": false,
    "provinceCode": "037100000",
    "districtCode": false,
    "regionCode": "030000000",
    "islandGroupCode": "luzon"
  },
  {
    "code": "041005000",
    "name": "Batangas City",
    "isCapital": true,
    "provinceCode": "041000000",
    "districtCode": false,
    "regionCode": "040000000",
    "islandGroupCode": "luzon"
  },
  {
    "code": "041014000",
    "name": "City of Lipa",
    "isCapital": false,
    "provinceCode": "041000000",
    "districtCode": false,
    "regionCode": "040000000",
    "islandGroupCode": "luzon"
  },
  {
    "code": "041028000",
    "name": "City of Sto. Tomas",
    "isCapital": false,
    "provinceCode": "041000000",
    "districtCode": false,
    "regionCode": "040000000",
    "islandGroupCode": "luzon"
  },
  {
    "code": "041031000",
    "name": "City of Tanauan",
    "isCapital": false,
    "provinceCode": "041000000",
    "districtCode": false,
    "regionCode": "040000000",
    "islandGroupCode": "luzon"
  },
  {
    "code": "042103000",
    "name": "City of Bacoor",
    "isCapital": false,
    "provinceCode": "042100000",
    "districtCode": false,
    "regionCode": "040000000",
    "islandGroupCode": "luzon"
  },
  {
    "code": "042105000",
    "name": "City of Cavite",
    "isCapital": false,
    "provinceCode": "042100000",
    "districtCode": false,
    "regionCode": "040000000",
    "islandGroupCode": "luzon"
  },
  {
    "code": "042106000",
    "name": "City of Dasmariñas",
    "isCapital": false,
    "provinceCode": "042100000",
    "districtCode": false,
    "regionCode": "040000000",
    "islandGroupCode": "luzon"
  },
  {
    "code": "042108000",
    "name": "City of General Trias",
    "isCapital": false,
    "provinceCode": "042100000",
    "districtCode": false,
    "regionCode": "040000000",
    "islandGroupCode": "luzon"
  },
  {
    "code": "042109000",
    "name": "City of Imus",
    "isCapital": false,
    "provinceCode": "042100000",
    "districtCode": false,
    "regionCode": "040000000",
    "islandGroupCode": "luzon"
  },
  {
    "code": "042119000",
    "name": "City of Tagaytay",
    "isCapital": false,
    "provinceCode": "042100000",
    "districtCode": false,
    "regionCode": "040000000",
    "islandGroupCode": "luzon"
  },
  {
    "code": "042122000",
    "name": "City of Trece Martires",
    "isCapital": true,
    "provinceCode": "042100000",
    "districtCode": false,
    "regionCode": "040000000",
    "islandGroupCode": "luzon"
  },
  {
    "code": "043403000",
    "name": "City of Biñan",
    "isCapital": false,
    "provinceCode": "043400000",
    "districtCode": false,
    "regionCode": "040000000",
    "islandGroupCode": "luzon"
  },
  {
    "code": "043404000",
    "name": "City of Cabuyao",
    "isCapital": false,
    "provinceCode": "043400000",
    "districtCode": false,
    "regionCode": "040000000",
    "islandGroupCode": "luzon"
  },
  {
    "code": "043405000",
    "name": "City of Calamba",
    "isCapital": false,
    "provinceCode": "043400000",
    "districtCode": false,
    "regionCode": "040000000",
    "islandGroupCode": "luzon"
  },
  {
    "code": "043424000",
    "name": "City of San Pablo",
    "isCapital": false,
    "provinceCode": "043400000",
    "districtCode": false,
    "regionCode": "040000000",
    "islandGroupCode": "luzon"
  },
  {
    "code": "043425000",
    "name": "City of San Pedro",
    "isCapital": false,
    "provinceCode": "043400000",
    "districtCode": false,
    "regionCode": "040000000",
    "islandGroupCode": "luzon"
  },
  {
    "code": "043428000",
    "name": "City of Santa Rosa",
    "isCapital": false,
    "provinceCode": "043400000",
    "districtCode": false,
    "regionCode": "040000000",
    "islandGroupCode": "luzon"
  },
  {
    "code": "045624000",
    "name": "City of Lucena",
    "isCapital": true,
    "provinceCode": "045600000",
    "districtCode": false,
    "regionCode": "040000000",
    "islandGroupCode": "luzon"
  },
  {
    "code": "045647000",
    "name": "City of Tayabas",
    "isCapital": false,
    "provinceCode": "045600000",
    "districtCode": false,
    "regionCode": "040000000",
    "islandGroupCode": "luzon"
  },
  {
    "code": "045802000",
    "name": "City of Antipolo",
    "isCapital": true,
    "provinceCode": "045800000",
    "districtCode": false,
    "regionCode": "040000000",
    "islandGroupCode": "luzon"
  },
  {
    "code": "175205000",
    "name": "City of Calapan",
    "isCapital": true,
    "provinceCode": "175200000",
    "districtCode": false,
    "regionCode": "170000000",
    "islandGroupCode": "luzon"
  },
  {
    "code": "175316000",
    "name": "City of Puerto Princesa",
    "isCapital": true,
    "provinceCode": "175300000",
    "districtCode": false,
    "regionCode": "170000000",
    "islandGroupCode": "luzon"
  },
  {
    "code": "050506000",
    "name": "City of Legazpi",
    "isCapital": true,
    "provinceCode": "050500000",
    "districtCode": false,
    "regionCode": "050000000",
    "islandGroupCode": "luzon"
  },
  {
    "code": "050508000",
    "name": "City of Ligao",
    "isCapital": false,
    "provinceCode": "050500000",
    "districtCode": false,
    "regionCode": "050000000",
    "islandGroupCode": "luzon"
  },
  {
    "code": "050517000",
    "name": "City of Tabaco",
    "isCapital": false,
    "provinceCode": "050500000",
    "districtCode": false,
    "regionCode": "050000000",
    "islandGroupCode": "luzon"
  },
  {
    "code": "051716000",
    "name": "City of Iriga",
    "isCapital": false,
    "provinceCode": "051700000",
    "districtCode": false,
    "regionCode": "050000000",
    "islandGroupCode": "luzon"
  },
  {
    "code": "051724000",
    "name": "City of Naga",
    "isCapital": false,
    "provinceCode": "051700000",
    "districtCode": false,
    "regionCode": "050000000",
    "islandGroupCode": "luzon"
  },
  {
    "code": "054111000",
    "name": "City of Masbate",
    "isCapital": true,
    "provinceCode": "054100000",
    "districtCode": false,
    "regionCode": "050000000",
    "islandGroupCode": "luzon"
  },
  {
    "code": "056216000",
    "name": "City of Sorsogon",
    "isCapital": true,
    "provinceCode": "056200000",
    "districtCode": false,
    "regionCode": "050000000",
    "islandGroupCode": "luzon"
  },
  {
    "code": "061914000",
    "name": "City of Roxas",
    "isCapital": true,
    "provinceCode": "061900000",
    "districtCode": false,
    "regionCode": "060000000",
    "islandGroupCode": "visayas"
  },
  {
    "code": "063022000",
    "name": "City of Iloilo",
    "isCapital": true,
    "provinceCode": "063000000",
    "districtCode": false,
    "regionCode": "060000000",
    "islandGroupCode": "visayas"
  },
  {
    "code": "063035000",
    "name": "City of Passi",
    "isCapital": false,
    "provinceCode": "063000000",
    "districtCode": false,
    "regionCode": "060000000",
    "islandGroupCode": "visayas"
  },
  {
    "code": "064501000",
    "name": "City of Bacolod",
    "isCapital": true,
    "provinceCode": "064500000",
    "districtCode": false,
    "regionCode": "060000000",
    "islandGroupCode": "visayas"
  },
  {
    "code": "064502000",
    "name": "City of Bago",
    "isCapital": false,
    "provinceCode": "064500000",
    "districtCode": false,
    "regionCode": "060000000",
    "islandGroupCode": "visayas"
  },
  {
    "code": "064504000",
    "name": "City of Cadiz",
    "isCapital": false,
    "provinceCode": "064500000",
    "districtCode": false,
    "regionCode": "060000000",
    "islandGroupCode": "visayas"
  },
  {
    "code": "064509000",
    "name": "City of Escalante",
    "isCapital": false,
    "provinceCode": "064500000",
    "districtCode": false,
    "regionCode": "060000000",
    "islandGroupCode": "visayas"
  },
  {
    "code": "064510000",
    "name": "City of Himamaylan",
    "isCapital": false,
    "provinceCode": "064500000",
    "districtCode": false,
    "regionCode": "060000000",
    "islandGroupCode": "visayas"
  },
  {
    "code": "064515000",
    "name": "City of Kabankalan",
    "isCapital": false,
    "provinceCode": "064500000",
    "districtCode": false,
    "regionCode": "060000000",
    "islandGroupCode": "visayas"
  },
  {
    "code": "064516000",
    "name": "City of La Carlota",
    "isCapital": false,
    "provinceCode": "064500000",
    "districtCode": false,
    "regionCode": "060000000",
    "islandGroupCode": "visayas"
  },
  {
    "code": "064523000",
    "name": "City of Sagay",
    "isCapital": false,
    "provinceCode": "064500000",
    "districtCode": false,
    "regionCode": "060000000",
    "islandGroupCode": "visayas"
  },
  {
    "code": "064524000",
    "name": "City of San Carlos",
    "isCapital": false,
    "provinceCode": "064500000",
    "districtCode": false,
    "regionCode": "060000000",
    "islandGroupCode": "visayas"
  },
  {
    "code": "064526000",
    "name": "City of Silay",
    "isCapital": false,
    "provinceCode": "064500000",
    "districtCode": false,
    "regionCode": "060000000",
    "islandGroupCode": "visayas"
  },
  {
    "code": "064527000",
    "name": "City of Sipalay",
    "isCapital": false,
    "provinceCode": "064500000",
    "districtCode": false,
    "regionCode": "060000000",
    "islandGroupCode": "visayas"
  },
  {
    "code": "064528000",
    "name": "City of Talisay",
    "isCapital": false,
    "provinceCode": "064500000",
    "districtCode": false,
    "regionCode": "060000000",
    "islandGroupCode": "visayas"
  },
  {
    "code": "064531000",
    "name": "City of Victorias",
    "isCapital": false,
    "provinceCode": "064500000",
    "districtCode": false,
    "regionCode": "060000000",
    "islandGroupCode": "visayas"
  },
  {
    "code": "071242000",
    "name": "City of Tagbilaran",
    "isCapital": true,
    "provinceCode": "071200000",
    "districtCode": false,
    "regionCode": "070000000",
    "islandGroupCode": "visayas"
  },
  {
    "code": "072211000",
    "name": "City of Bogo",
    "isCapital": false,
    "provinceCode": "072200000",
    "districtCode": false,
    "regionCode": "070000000",
    "islandGroupCode": "visayas"
  },
  {
    "code": "072214000",
    "name": "City of Carcar",
    "isCapital": false,
    "provinceCode": "072200000",
    "districtCode": false,
    "regionCode": "070000000",
    "islandGroupCode": "visayas"
  },
  {
    "code": "072217000",
    "name": "City of Cebu",
    "isCapital": true,
    "provinceCode": "072200000",
    "districtCode": false,
    "regionCode": "070000000",
    "islandGroupCode": "visayas"
  },
  {
    "code": "072223000",
    "name": "Danao City",
    "isCapital": false,
    "provinceCode": "072200000",
    "districtCode": false,
    "regionCode": "070000000",
    "islandGroupCode": "visayas"
  },
  {
    "code": "072226000",
    "name": "City of Lapu-Lapu (Opon)",
    "isCapital": false,
    "provinceCode": "072200000",
    "districtCode": false,
    "regionCode": "070000000",
    "islandGroupCode": "visayas"
  },
  {
    "code": "072230000",
    "name": "City of Mandaue",
    "isCapital": false,
    "provinceCode": "072200000",
    "districtCode": false,
    "regionCode": "070000000",
    "islandGroupCode": "visayas"
  },
  {
    "code": "072234000",
    "name": "City of Naga",
    "isCapital": false,
    "provinceCode": "072200000",
    "districtCode": false,
    "regionCode": "070000000",
    "islandGroupCode": "visayas"
  },
  {
    "code": "072250000",
    "name": "City of Talisay",
    "isCapital": false,
    "provinceCode": "072200000",
    "districtCode": false,
    "regionCode": "070000000",
    "islandGroupCode": "visayas"
  },
  {
    "code": "072251000",
    "name": "City of Toledo",
    "isCapital": false,
    "provinceCode": "072200000",
    "districtCode": false,
    "regionCode": "070000000",
    "islandGroupCode": "visayas"
  },
  {
    "code": "074604000",
    "name": "City of Bais",
    "isCapital": false,
    "provinceCode": "074600000",
    "districtCode": false,
    "regionCode": "070000000",
    "islandGroupCode": "visayas"
  },
  {
    "code": "074606000",
    "name": "City of Bayawan (Tulong)",
    "isCapital": false,
    "provinceCode": "074600000",
    "districtCode": false,
    "regionCode": "070000000",
    "islandGroupCode": "visayas"
  },
  {
    "code": "074608000",
    "name": "City of Canlaon",
    "isCapital": false,
    "provinceCode": "074600000",
    "districtCode": false,
    "regionCode": "070000000",
    "islandGroupCode": "visayas"
  },
  {
    "code": "074610000",
    "name": "City of Dumaguete",
    "isCapital": true,
    "provinceCode": "074600000",
    "districtCode": false,
    "regionCode": "070000000",
    "islandGroupCode": "visayas"
  },
  {
    "code": "074611000",
    "name": "City of Guihulngan",
    "isCapital": false,
    "provinceCode": "074600000",
    "districtCode": false,
    "regionCode": "070000000",
    "islandGroupCode": "visayas"
  },
  {
    "code": "074621000",
    "name": "City of Tanjay",
    "isCapital": false,
    "provinceCode": "074600000",
    "districtCode": false,
    "regionCode": "070000000",
    "islandGroupCode": "visayas"
  },
  {
    "code": "082604000",
    "name": "City of Borongan",
    "isCapital": true,
    "provinceCode": "082600000",
    "districtCode": false,
    "regionCode": "080000000",
    "islandGroupCode": "visayas"
  },
  {
    "code": "083708000",
    "name": "City of Baybay",
    "isCapital": false,
    "provinceCode": "083700000",
    "districtCode": false,
    "regionCode": "080000000",
    "islandGroupCode": "visayas"
  },
  {
    "code": "083738000",
    "name": "Ormoc City",
    "isCapital": false,
    "provinceCode": "083700000",
    "districtCode": false,
    "regionCode": "080000000",
    "islandGroupCode": "visayas"
  },
  {
    "code": "083747000",
    "name": "City of Tacloban",
    "isCapital": true,
    "provinceCode": "083700000",
    "districtCode": false,
    "regionCode": "080000000",
    "islandGroupCode": "visayas"
  },
  {
    "code": "086003000",
    "name": "City of Calbayog",
    "isCapital": false,
    "provinceCode": "086000000",
    "districtCode": false,
    "regionCode": "080000000",
    "islandGroupCode": "visayas"
  },
  {
    "code": "086005000",
    "name": "City of Catbalogan",
    "isCapital": true,
    "provinceCode": "086000000",
    "districtCode": false,
    "regionCode": "080000000",
    "islandGroupCode": "visayas"
  },
  {
    "code": "086407000",
    "name": "City of Maasin",
    "isCapital": true,
    "provinceCode": "086400000",
    "districtCode": false,
    "regionCode": "080000000",
    "islandGroupCode": "visayas"
  },
  {
    "code": "097201000",
    "name": "City of Dapitan",
    "isCapital": false,
    "provinceCode": "097200000",
    "districtCode": false,
    "regionCode": "090000000",
    "islandGroupCode": "mindanao"
  },
  {
    "code": "097202000",
    "name": "City of Dipolog",
    "isCapital": true,
    "provinceCode": "097200000",
    "districtCode": false,
    "regionCode": "090000000",
    "islandGroupCode": "mindanao"
  },
  {
    "code": "097322000",
    "name": "City of Pagadian",
    "isCapital": true,
    "provinceCode": "097300000",
    "districtCode": false,
    "regionCode": "090000000",
    "islandGroupCode": "mindanao"
  },
  {
    "code": "097332000",
    "name": "City of Zamboanga",
    "isCapital": false,
    "provinceCode": "097300000",
    "districtCode": false,
    "regionCode": "090000000",
    "islandGroupCode": "mindanao"
  },
  {
    "code": "099701000",
    "name": "City of Isabela",
    "isCapital": false,
    "provinceCode": false,
    "districtCode": false,
    "regionCode": "090000000",
    "islandGroupCode": "mindanao"
  },
  {
    "code": "101312000",
    "name": "City of Malaybalay",
    "isCapital": true,
    "provinceCode": "101300000",
    "districtCode": false,
    "regionCode": "100000000",
    "islandGroupCode": "mindanao"
  },
  {
    "code": "101321000",
    "name": "City of Valencia",
    "isCapital": false,
    "provinceCode": "101300000",
    "districtCode": false,
    "regionCode": "100000000",
    "islandGroupCode": "mindanao"
  },
  {
    "code": "103504000",
    "name": "City of Iligan",
    "isCapital": false,
    "provinceCode": "103500000",
    "districtCode": false,
    "regionCode": "100000000",
    "islandGroupCode": "mindanao"
  },
  {
    "code": "104209000",
    "name": "City of Oroquieta",
    "isCapital": true,
    "provinceCode": "104200000",
    "districtCode": false,
    "regionCode": "100000000",
    "islandGroupCode": "mindanao"
  },
  {
    "code": "104210000",
    "name": "City of Ozamiz",
    "isCapital": false,
    "provinceCode": "104200000",
    "districtCode": false,
    "regionCode": "100000000",
    "islandGroupCode": "mindanao"
  },
  {
    "code": "104215000",
    "name": "City of Tangub",
    "isCapital": false,
    "provinceCode": "104200000",
    "districtCode": false,
    "regionCode": "100000000",
    "islandGroupCode": "mindanao"
  },
  {
    "code": "104305000",
    "name": "City of Cagayan De Oro",
    "isCapital": true,
    "provinceCode": "104300000",
    "districtCode": false,
    "regionCode": "100000000",
    "islandGroupCode": "mindanao"
  },
  {
    "code": "104307000",
    "name": "City of El Salvador",
    "isCapital": false,
    "provinceCode": "104300000",
    "districtCode": false,
    "regionCode": "100000000",
    "islandGroupCode": "mindanao"
  },
  {
    "code": "104308000",
    "name": "City of Gingoog",
    "isCapital": false,
    "provinceCode": "104300000",
    "districtCode": false,
    "regionCode": "100000000",
    "islandGroupCode": "mindanao"
  },
  {
    "code": "112315000",
    "name": "City of Panabo",
    "isCapital": false,
    "provinceCode": "112300000",
    "districtCode": false,
    "regionCode": "110000000",
    "islandGroupCode": "mindanao"
  },
  {
    "code": "112317000",
    "name": "Island Garden City of Samal",
    "isCapital": false,
    "provinceCode": "112300000",
    "districtCode": false,
    "regionCode": "110000000",
    "islandGroupCode": "mindanao"
  },
  {
    "code": "112319000",
    "name": "City of Tagum",
    "isCapital": true,
    "provinceCode": "112300000",
    "districtCode": false,
    "regionCode": "110000000",
    "islandGroupCode": "mindanao"
  },
  {
    "code": "112402000",
    "name": "City of Davao",
    "isCapital": false,
    "provinceCode": "112400000",
    "districtCode": false,
    "regionCode": "110000000",
    "islandGroupCode": "mindanao"
  },
  {
    "code": "112403000",
    "name": "City of Digos",
    "isCapital": true,
    "provinceCode": "112400000",
    "districtCode": false,
    "regionCode": "110000000",
    "islandGroupCode": "mindanao"
  },
  {
    "code": "112509000",
    "name": "City of Mati",
    "isCapital": true,
    "provinceCode": "112500000",
    "districtCode": false,
    "regionCode": "110000000",
    "islandGroupCode": "mindanao"
  },
  {
    "code": "124704000",
    "name": "City of Kidapawan",
    "isCapital": true,
    "provinceCode": "124700000",
    "districtCode": false,
    "regionCode": "120000000",
    "islandGroupCode": "mindanao"
  },
  {
    "code": "126303000",
    "name": "City of General Santos (Dadiangas)",
    "isCapital": false,
    "provinceCode": "126300000",
    "districtCode": false,
    "regionCode": "120000000",
    "islandGroupCode": "mindanao"
  },
  {
    "code": "126306000",
    "name": "City of Koronadal",
    "isCapital": true,
    "provinceCode": "126300000",
    "districtCode": false,
    "regionCode": "120000000",
    "islandGroupCode": "mindanao"
  },
  {
    "code": "126511000",
    "name": "City of Tacurong",
    "isCapital": false,
    "provinceCode": "126500000",
    "districtCode": false,
    "regionCode": "120000000",
    "islandGroupCode": "mindanao"
  },
  {
    "code": "129804000",
    "name": "City of Cotabato",
    "isCapital": false,
    "provinceCode": false,
    "districtCode": false,
    "regionCode": "120000000",
    "islandGroupCode": "mindanao"
  },
  {
    "code": "133900000",
    "name": "City of Manila",
    "isCapital": false,
    "provinceCode": false,
    "districtCode": "133900000",
    "regionCode": "130000000",
    "islandGroupCode": "luzon"
  },
  {
    "code": "137401000",
    "name": "City of Mandaluyong",
    "isCapital": false,
    "provinceCode": false,
    "districtCode": "137400000",
    "regionCode": "130000000",
    "islandGroupCode": "luzon"
  },
  {
    "code": "137402000",
    "name": "City of Marikina",
    "isCapital": false,
    "provinceCode": false,
    "districtCode": "137400000",
    "regionCode": "130000000",
    "islandGroupCode": "luzon"
  },
  {
    "code": "137403000",
    "name": "City of Pasig",
    "isCapital": false,
    "provinceCode": false,
    "districtCode": "137400000",
    "regionCode": "130000000",
    "islandGroupCode": "luzon"
  },
  {
    "code": "137404000",
    "name": "Quezon City",
    "isCapital": false,
    "provinceCode": false,
    "districtCode": "137400000",
    "regionCode": "130000000",
    "islandGroupCode": "luzon"
  },
  {
    "code": "137405000",
    "name": "City of San Juan",
    "isCapital": false,
    "provinceCode": false,
    "districtCode": "137400000",
    "regionCode": "130000000",
    "islandGroupCode": "luzon"
  },
  {
    "code": "137501000",
    "name": "City of Caloocan",
    "isCapital": false,
    "provinceCode": false,
    "districtCode": "137500000",
    "regionCode": "130000000",
    "islandGroupCode": "luzon"
  },
  {
    "code": "137502000",
    "name": "City of Malabon",
    "isCapital": false,
    "provinceCode": false,
    "districtCode": "137500000",
    "regionCode": "130000000",
    "islandGroupCode": "luzon"
  },
  {
    "code": "137503000",
    "name": "City of Navotas",
    "isCapital": false,
    "provinceCode": false,
    "districtCode": "137500000",
    "regionCode": "130000000",
    "islandGroupCode": "luzon"
  },
  {
    "code": "137504000",
    "name": "City of Valenzuela",
    "isCapital": false,
    "provinceCode": false,
    "districtCode": "137500000",
    "regionCode": "130000000",
    "islandGroupCode": "luzon"
  },
  {
    "code": "137601000",
    "name": "City of Las Piñas",
    "isCapital": false,
    "provinceCode": false,
    "districtCode": "137600000",
    "regionCode": "130000000",
    "islandGroupCode": "luzon"
  },
  {
    "code": "137602000",
    "name": "City of Makati",
    "isCapital": false,
    "provinceCode": false,
    "districtCode": "137600000",
    "regionCode": "130000000",
    "islandGroupCode": "luzon"
  },
  {
    "code": "137603000",
    "name": "City of Muntinlupa",
    "isCapital": false,
    "provinceCode": false,
    "districtCode": "137600000",
    "regionCode": "130000000",
    "islandGroupCode": "luzon"
  },
  {
    "code": "137604000",
    "name": "City of Parañaque",
    "isCapital": false,
    "provinceCode": false,
    "districtCode": "137600000",
    "regionCode": "130000000",
    "islandGroupCode": "luzon"
  },
  {
    "code": "137605000",
    "name": "Pasay City",
    "isCapital": false,
    "provinceCode": false,
    "districtCode": "137600000",
    "regionCode": "130000000",
    "islandGroupCode": "luzon"
  },
  {
    "code": "137607000",
    "name": "City of Taguig",
    "isCapital": false,
    "provinceCode": false,
    "districtCode": "137600000",
    "regionCode": "130000000",
    "islandGroupCode": "luzon"
  },
  {
    "code": "141102000",
    "name": "City of Baguio",
    "isCapital": false,
    "provinceCode": "141100000",
    "districtCode": false,
    "regionCode": "140000000",
    "islandGroupCode": "luzon"
  },
  {
    "code": "143213000",
    "name": "City of Tabuk",
    "isCapital": true,
    "provinceCode": "143200000",
    "districtCode": false,
    "regionCode": "140000000",
    "islandGroupCode": "luzon"
  },
  {
    "code": "150702000",
    "name": "City of Lamitan",
    "isCapital": true,
    "provinceCode": "150700000",
    "districtCode": false,
    "regionCode": "150000000",
    "islandGroupCode": "mindanao"
  },
  {
    "code": "153617000",
    "name": "City of Marawi",
    "isCapital": true,
    "provinceCode": "153600000",
    "districtCode": false,
    "regionCode": "150000000",
    "islandGroupCode": "mindanao"
  },
  {
    "code": "160202000",
    "name": "City of Butuan",
    "isCapital": true,
    "provinceCode": "160200000",
    "districtCode": false,
    "regionCode": "160000000",
    "islandGroupCode": "mindanao"
  },
  {
    "code": "160203000",
    "name": "City of Cabadbaran",
    "isCapital": false,
    "provinceCode": "160200000",
    "districtCode": false,
    "regionCode": "160000000",
    "islandGroupCode": "mindanao"
  },
  {
    "code": "160301000",
    "name": "City of Bayugan",
    "isCapital": false,
    "provinceCode": "160300000",
    "districtCode": false,
    "regionCode": "160000000",
    "islandGroupCode": "mindanao"
  },
  {
    "code": "166724000",
    "name": "City of Surigao",
    "isCapital": true,
    "provinceCode": "166700000",
    "districtCode": false,
    "regionCode": "160000000",
    "islandGroupCode": "mindanao"
  },
  {
    "code": "166803000",
    "name": "City of Bislig",
    "isCapital": false,
    "provinceCode": "166800000",
    "districtCode": false,
    "regionCode": "160000000",
    "islandGroupCode": "mindanao"
  },
  {
    "code": "166819000",
    "name": "City of Tandag",
    "isCapital": true,
    "provinceCode": "166800000",
    "districtCode": false,
    "regionCode": "160000000",
    "islandGroupCode": "mindanao"
  }
]
