[
  {
    "code": "012800000",
    "name": "Ilocos Norte",
    "regionCode": "010000000",
    "islandGroupCode": "luzon"
  },
  {
    "code": "012900000",
    "name": "Ilocos Sur",
    "regionCode": "010000000",
    "islandGroupCode": "luzon"
  },
  {
    "code": "013300000",
    "name": "La Union",
    "regionCode": "010000000",
    "islandGroupCode": "luzon"
  },
  {
    "code": "015500000",
    "name": "Pangasinan",
    "regionCode": "010000000",
    "islandGroupCode": "luzon"
  },
  {
    "code": "020900000",
    "name": "Batanes",
    "regionCode": "020000000",
    "islandGroupCode": "luzon"
  },
  {
    "code": "021500000",
    "name": "Cagayan",
    "regionCode": "020000000",
    "islandGroupCode": "luzon"
  },
  {
    "code": "023100000",
    "name": "Isabela",
    "regionCode": "020000000",
    "islandGroupCode": "luzon"
  },
  {
    "code": "025000000",
    "name": "Nueva Vizcaya",
    "regionCode": "020000000",
    "islandGroupCode": "luzon"
  },
  {
    "code": "025700000",
    "name": "Quirino",
    "regionCode": "020000000",
    "islandGroupCode": "luzon"
  },
  {
    "code": "030800000",
    "name": "Bataan",
    "regionCode": "030000000",
    "islandGroupCode": "luzon"
  },
  {
    "code": "031400000",
    "name": "Bulacan",
    "regionCode": "030000000",
    "islandGroupCode": "luzon"
  },
  {
    "code": "034900000",
    "name": "Nueva Ecija",
    "regionCode": "030000000",
    "islandGroupCode": "luzon"
  },
  {
    "code": "035400000",
    "name": "Pampanga",
    "regionCode": "030000000",
    "islandGroupCode": "luzon"
  },
  {
    "code": "036900000",
    "name": "Tarlac",
    "regionCode": "030000000",
    "islandGroupCode": "luzon"
  },
  {
    "code": "037100000",
    "name": "Zambales",
    "regionCode": "030000000",
    "islandGroupCode": "luzon"
  },
  {
    "code": "037700000",
    "name": "Aurora",
    "regionCode": "030000000",
    "islandGroupCode": "luzon"
  },
  {
    "code": "041000000",
    "name": "Batangas",
    "regionCode": "040000000",
    "islandGroupCode": "luzon"
  },
  {
    "code": "042100000",
    "name": "Cavite",
    "regionCode": "040000000",
    "islandGroupCode": "luzon"
  },
  {
    "code": "043400000",
    "name": "Laguna",
    "regionCode": "040000000",
    "islandGroupCode": "luzon"
  },
  {
    "code": "045600000",
    "name": "Quezon",
    "regionCode": "040000000",
    "islandGroupCode": "luzon"
  },
  {
    "code": "045800000",
    "name": "Rizal",
    "regionCode": "040000000",
    "islandGroupCode": "luzon"
  },
  {
    "code": "174000000",
    "name": "Marinduque",
    "regionCode": "170000000",
    "islandGroupCode": "luzon"
  },
  {
    "code": "175100000",
    "name": "Occidental Mindoro",
    "regionCode": "170000000",
    "islandGroupCode": "luzon"
  },
  {
    "code": "175200000",
    "name": "Oriental Mindoro",
    "regionCode": "170000000",
    "islandGroupCode": "luzon"
  },
  {
    "code": "175300000",
    "name": "Palawan",
    "regionCode": "170000000",
    "islandGroupCode": "luzon"
  },
  {
    "code": "175900000",
    "name": "Romblon",
    "regionCode": "170000000",
    "islandGroupCode": "luzon"
  },
  {
    "code": "050500000",
    "name": "Albay",
    "regionCode": "050000000",
    "islandGroupCode": "luzon"
  },
  {
    "code": "051600000",
    "name": "Camarines Norte",
    "regionCode": "050000000",
    "islandGroupCode": "luzon"
  },
  {
    "code": "051700000",
    "name": "Camarines Sur",
    "regionCode": "050000000",
    "islandGroupCode": "luzon"
  },
  {
    "code": "052000000",
    "name": "Catanduanes",
    "regionCode": "050000000",
    "islandGroupCode": "luzon"
  },
  {
    "code": "054100000",
    "name": "Masbate",
    "regionCode": "050000000",
    "islandGroupCode": "luzon"
  },
  {
    "code": "056200000",
    "name": "Sorsogon",
    "regionCode": "050000000",
    "islandGroupCode": "luzon"
  },
  {
    "code": "060400000",
    "name": "Aklan",
    "regionCode": "060000000",
    "islandGroupCode": "visayas"
  },
  {
    "code": "060600000",
    "name": "Antique",
    "regionCode": "060000000",
    "islandGroupCode": "visayas"
  },
  {
    "code": "061900000",
    "name": "Capiz",
    "regionCode": "060000000",
    "islandGroupCode": "visayas"
  },
  {
    "code": "063000000",
    "name": "Iloilo",
    "regionCode": "060000000",
    "islandGroupCode": "visayas"
  },
  {
    "code": "064500000",
    "name": "Negros Occidental",
    "regionCode": "060000000",
    "islandGroupCode": "visayas"
  },
  {
    "code": "067900000",
    "name": "Guimaras",
    "regionCode": "060000000",
    "islandGroupCode": "visayas"
  },
  {
    "code": "071200000",
    "name": "Bohol",
    "regionCode": "070000000",
    "islandGroupCode": "visayas"
  },
  {
    "code": "072200000",
    "name": "Cebu",
    "regionCode": "070000000",
    "islandGroupCode": "visayas"
  },
  {
    "code": "074600000",
    "name": "Negros Oriental",
    "regionCode": "070000000",
    "islandGroupCode": "visayas"
  },
  {
    "code": "076100000",
    "name": "Siquijor",
    "regionCode": "070000000",
    "islandGroupCode": "visayas"
  },
  {
    "code": "082600000",
    "name": "Eastern Samar",
    "regionCode": "080000000",
    "islandGroupCode": "visayas"
  },
  {
    "code": "083700000",
    "name": "Leyte",
    "regionCode": "080000000",
    "islandGroupCode": "visayas"
  },
  {
    "code": "084800000",
    "name": "Northern Samar",
    "regionCode": "080000000",
    "islandGroupCode": "visayas"
  },
  {
    "code": "086000000",
    "name": "Samar (Western Samar)",
    "regionCode": "080000000",
    "islandGroupCode": "visayas"
  },
  {
    "code": "086400000",
    "name": "Southern Leyte",
    "regionCode": "080000000",
    "islandGroupCode": "visayas"
  },
  {
    "code": "087800000",
    "name": "Biliran",
    "regionCode": "080000000",
    "islandGroupCode": "visayas"
  },
  {
    "code": "097200000",
    "name": "Zamboanga Del Norte",
    "regionCode": "090000000",
    "islandGroupCode": "mindanao"
  },
  {
    "code": "097300000",
    "name": "Zamboanga Del Sur",
    "regionCode": "090000000",
    "islandGroupCode": "mindanao"
  },
  {
    "code": "098300000",
    "name": "Zamboanga Sibugay",
    "regionCode": "090000000",
    "islandGroupCode": "mindanao"
  },
  {
    "code": "101300000",
    "name": "Bukidnon",
    "regionCode": "100000000",
    "islandGroupCode": "mindanao"
  },
  {
    "code": "101800000",
    "name": "Camiguin",
    "regionCode": "100000000",
    "islandGroupCode": "mindanao"
  },
  {
    "code": "103500000",
    "name": "Lanao Del Norte",
    "regionCode": "100000000",
    "islandGroupCode": "mindanao"
  },
  {
    "code": "104200000",
    "name": "Misamis Occidental",
    "regionCode": "100000000",
    "islandGroupCode": "mindanao"
  },
  {
    "code": "104300000",
    "name": "Misamis Oriental",
    "regionCode": "100000000",
    "islandGroupCode": "mindanao"
  },
  {
    "code": "112300000",
    "name": "Davao Del Norte",
    "regionCode": "110000000",
    "islandGroupCode": "mindanao"
  },
  {
    "code": "112400000",
    "name": "Davao Del Sur",
    "regionCode": "110000000",
    "islandGroupCode": "mindanao"
  },
  {
    "code": "112500000",
    "name": "Davao Oriental",
    "regionCode": "110000000",
    "islandGroupCode": "mindanao"
  },
  {
    "code": "118200000",
    "name": "Davao De Oro (Compostela Valley)",
    "regionCode": "110000000",
    "islandGroupCode": "mindanao"
  },
  {
    "code": "118600000",
    "name": "Davao Occidental",
    "regionCode": "110000000",
    "islandGroupCode": "mindanao"
  },
  {
    "code": "124700000",
    "name": "Cotabato (North Cotabato)",
    "regionCode": "120000000",
    "islandGroupCode": "mindanao"
  },
  {
    "code": "126300000",
    "name": "South Cotabato",
    "regionCode": "120000000",
    "islandGroupCode": "mindanao"
  },
  {
    "code": "126500000",
    "name": "Sultan Kudarat",
    "regionCode": "120000000",
    "islandGroupCode": "mindanao"
  },
  {
    "code": "128000000",
    "name": "Sarangani",
    "regionCode": "120000000",
    "islandGroupCode": "mindanao"
  },
  {
    "code": "140100000",
    "name": "Abra",
    "regionCode": "140000000",
    "islandGroupCode": "luzon"
  },
  {
    "code": "141100000",
    "name": "Benguet",
    "regionCode": "140000000",
    "islandGroupCode": "luzon"
  },
  {
    "code": "142700000",
    "name": "Ifugao",
    "regionCode": "140000000",
    "islandGroupCode": "luzon"
  },
  {
    "code": "143200000",
    "name": "Kalinga",
    "regionCode": "140000000",
    "islandGroupCode": "luzon"
  },
  {
    "code": "144400000",
    "name": "Mountain Province",
    "regionCode": "140000000",
    "islandGroupCode": "luzon"
  },
  {
    "code": "148100000",
    "name": "Apayao",
    "regionCode": "140000000",
    "islandGroupCode": "luzon"
  },
  {
    "code": "150700000",
    "name": "Basilan",
    "regionCode": "150000000",
    "islandGroupCode": "mindanao"
  },
  {
    "code": "153600000",
    "name": "Lanao Del Sur",
    "regionCode": "150000000",
    "islandGroupCode": "mindanao"
  },
  {
    "code": "153800000",
    "name": "Maguindanao",
    "regionCode": "150000000",
    "islandGroupCode": "mindanao"
  },
  {
    "code": "156600000",
    "name": "Sulu",
    "regionCode": "150000000",
    "islandGroupCode": "mindanao"
  },
  {
    "code": "157000000",
    "name": "Tawi-Tawi",
    "regionCode": "150000000",
    "islandGroupCode": "mindanao"
  },
  {
    "code": "160200000",
    "name": "Agusan Del Norte",
    "regionCode": "160000000",
    "islandGroupCode": "mindanao"
  },
  {
    "code": "160300000",
    "name": "Agusan Del Sur",
    "regionCode": "160000000",
    "islandGroupCode": "mindanao"
  },
  {
    "code": "166700000",
    "name": "Surigao Del Norte",
    "regionCode": "160000000",
    "islandGroupCode": "mindanao"
  },
  {
    "code": "166800000",
    "name": "Surigao Del Sur",
    "regionCode": "160000000",
    "islandGroupCode": "mindanao"
  },
  {
    "code": "168500000",
    "name": "Dinagat Islands",
    "regionCode": "160000000",
    "islandGroupCode": "mindanao"
  }
]
