[
  {
    "code": "010000000",
    "name": "Ilocos Region",
    "regionName": "Region I",
    "islandGroupCode": "luzon"
  },
  {
    "code": "020000000",
    "name": "Cagayan Valley",
    "regionName": "Region II",
    "islandGroupCode": "luzon"
  },
  {
    "code": "030000000",
    "name": "Central Luzon",
    "regionName": "Region III",
    "islandGroupCode": "luzon"
  },
  {
    "code": "040000000",
    "name": "CALABARZON",
    "regionName": "Region IV-A",
    "islandGroupCode": "luzon"
  },
  {
    "code": "170000000",
    "name": "MIMAROPA",
    "regionName": "Mimaropa Region",
    "islandGroupCode": "luzon"
  },
  {
    "code": "050000000",
    "name": "Bicol Region",
    "regionName": "Region V",
    "islandGroupCode": "luzon"
  },
  {
    "code": "060000000",
    "name": "Western Visayas",
    "regionName": "Region VI",
    "islandGroupCode": "visayas"
  },
  {
    "code": "070000000",
    "name": "Central Visayas",
    "regionName": "Region VII",
    "islandGroupCode": "visayas"
  },
  {
    "code": "080000000",
    "name": "Eastern Visayas",
    "regionName": "Region VIII",
    "islandGroupCode": "visayas"
  },
  {
    "code": "090000000",
    "name": "Zamboanga Peninsula",
    "regionName": "Region IX",
    "islandGroupCode": "mindanao"
  },
  {
    "code": "100000000",
    "name": "Northern Mindanao",
    "regionName": "Region X",
    "islandGroupCode": "mindanao"
  },
  {
    "code": "110000000",
    "name": "Davao Region",
    "regionName": "Region XI",
    "islandGroupCode": "mindanao"
  },
  {
    "code": "120000000",
    "name": "SOCCSKSARGEN",
    "regionName": "Region XII",
    "islandGroupCode": "mindanao"
  },
  {
    "code": "130000000",
    "name": "NCR",
    "regionName": "National Capital Region",
    "islandGroupCode": "luzon"
  },
  {
    "code": "140000000",
    "name": "CAR",
    "regionName": "Cordillera Administrative Region",
    "islandGroupCode": "luzon"
  },
  {
    "code": "150000000",
    "name": "ARMM",
    "regionName": "Autonomous Region in Muslim Mindanao",
    "islandGroupCode": "mindanao"
  },
  {
    "code": "160000000",
    "name": "Caraga",
    "regionName": "Region XIII",
    "islandGroupCode": "mindanao"
  }
]
